{
  "per_page" : 10,
  "data" : [ {
    "fact" : "Unlike dogs, cats do not have a sweet tooth. Scientists believe this is due to a mutation in a key taste receptor.",
    "length" : 114
  }, {
    "fact" : "When a cat chases its prey, it keeps its head level. Dogs and humans bob their heads up and down.",
    "length" : 97
  }, {
    "fact" : "The technical term for a cat’s hairball is a “bezoar.”",
    "length" : 54
  }, {
    "fact" : "A group of cats is called a “clowder.”",
    "length" : 38
  }, {
    "fact" : "A cat can’t climb head first down a tree because every claw on a cat’s paw points the same way. To get down from a tree, a cat must back down.",
    "length" : 142
  }, {
    "fact" : "Cats make about 100 different sounds. Dogs make only about 10.",
    "length" : 62
  }, {
    "fact" : "Every year, nearly four million cats are eaten in Asia.",
    "length" : 55
  }, {
    "fact" : "There are more than 500 million domestic cats in the world, with approximately 40 recognized breeds.",
    "length" : 100
  }, {
    "fact" : "Approximately 24 cat skins can make a coat.",
    "length" : 43
  }, {
    "fact" : "While it is commonly thought that the ancient Egyptians were the first to domesticate cats, the oldest known pet cat was recently found in a 9,500-year-old grave on the Mediterranean island of Cyprus. This grave predates early Egyptian art depicting cats by 4,000 years or more.",
    "length" : 278
  } ],
  "last_page" : 34,
  "next_page_url" : "https://catfact.ninja/facts?page=2",
  "prev_page_url" : null,
  "first_page_url" : "https://catfact.ninja/facts?page=1",
  "path" : "https://catfact.ninja/facts",
  "total" : 332,
  "last_page_url" : "https://catfact.ninja/facts?page=34",
  "from" : 1,
  "links" : [ {
    "active" : false,
    "label" : "Previous",
    "url" : null
  }, {
    "active" : true,
    "label" : "1",
    "url" : "https://catfact.ninja/facts?page=1"
  }, {
    "active" : false,
    "label" : "2",
    "url" : "https://catfact.ninja/facts?page=2"
  }, {
    "active" : false,
    "label" : "3",
    "url" : "https://catfact.ninja/facts?page=3"
  }, {
    "active" : false,
    "label" : "4",
    "url" : "https://catfact.ninja/facts?page=4"
  }, {
    "active" : false,
    "label" : "5",
    "url" : "https://catfact.ninja/facts?page=5"
  }, {
    "active" : false,
    "label" : "6",
    "url" : "https://catfact.ninja/facts?page=6"
  }, {
    "active" : false,
    "label" : "7",
    "url" : "https://catfact.ninja/facts?page=7"
  }, {
    "active" : false,
    "label" : "8",
    "url" : "https://catfact.ninja/facts?page=8"
  }, {
    "active" : false,
    "label" : "9",
    "url" : "https://catfact.ninja/facts?page=9"
  }, {
    "active" : false,
    "label" : "10",
    "url" : "https://catfact.ninja/facts?page=10"
  }, {
    "active" : false,
    "label" : "...",
    "url" : null
  }, {
    "active" : false,
    "label" : "33",
    "url" : "https://catfact.ninja/facts?page=33"
  }, {
    "active" : false,
    "label" : "34",
    "url" : "https://catfact.ninja/facts?page=34"
  }, {
    "active" : false,
    "label" : "Next",
    "url" : "https://catfact.ninja/facts?page=2"
  } ],
  "to" : 10,
  "current_page" : 1
}